<?xml version="1.0" encoding="UTF-8" standalone="no"?>
<!-- Created with Inkscape (http://www.inkscape.org/) -->

<svg
   width="127.01025mm"
   height="45.367455mm"
   viewBox="0 0 127.01025 45.367455"
   version="1.1"
   id="svg9500"
   inkscape:version="1.2.2 (b0a8486541, 2022-12-01)"
   sodipodi:docname="frame.svg"
   xmlns:inkscape="http://www.inkscape.org/namespaces/inkscape"
   xmlns:sodipodi="http://sodipodi.sourceforge.net/DTD/sodipodi-0.dtd"
   xmlns="http://www.w3.org/2000/svg"
   xmlns:svg="http://www.w3.org/2000/svg">
  <sodipodi:namedview
     id="namedview9502"
     pagecolor="#505050"
     bordercolor="#eeeeee"
     borderopacity="1"
     inkscape:showpageshadow="0"
     inkscape:pageopacity="0"
     inkscape:pagecheckerboard="0"
     inkscape:deskcolor="#505050"
     inkscape:document-units="mm"
     showgrid="false"
     inkscape:zoom="0.914906"
     inkscape:cx="78.696609"
     inkscape:cy="261.77553"
     inkscape:window-width="1768"
     inkscape:window-height="1263"
     inkscape:window-x="1128"
     inkscape:window-y="789"
     inkscape:window-maximized="0"
     inkscape:current-layer="layer1" />
  <defs
     id="defs9497" />
  <g
     inkscape:label="Layer 1"
     inkscape:groupmode="layer"
     id="layer1"
     transform="translate(-35.713156,-49.963589)">
    <rect
       style="fill:none;fill-opacity:1;stroke:#000000;stroke-width:1.224;stroke-dasharray:none;stroke-opacity:1"
       id="rect2918-36-5"
       width="24.81465"
       height="29.358244"
       x="41.183361"
       y="65.360802" />
    <path
       style="fill:none;stroke:#000000;stroke-width:0.264583px;stroke-linecap:butt;stroke-linejoin:miter;stroke-opacity:1"
       d="m 41.267148,70.07952 24.778968,-0.0261"
       id="path3046-1-8"
       sodipodi:nodetypes="cc" />
    <path
       style="fill:none;stroke:#000000;stroke-width:0.264583px;stroke-linecap:butt;stroke-linejoin:miter;stroke-opacity:1"
       d="m 41.267148,74.99837 24.778968,-0.0261"
       id="path3046-3-06-7"
       sodipodi:nodetypes="cc" />
    <path
       style="fill:none;stroke:#000000;stroke-width:0.264583px;stroke-linecap:butt;stroke-linejoin:miter;stroke-opacity:1"
       d="m 41.267148,79.91721 24.778968,-0.0261"
       id="path3046-6-32-0"
       sodipodi:nodetypes="cc" />
    <path
       style="fill:none;stroke:#000000;stroke-width:0.264583px;stroke-linecap:butt;stroke-linejoin:miter;stroke-opacity:1"
       d="m 41.267148,84.83606 24.778968,-0.0261"
       id="path3046-7-0-4"
       sodipodi:nodetypes="cc" />
    <path
       style="fill:none;stroke:#000000;stroke-width:0.264583px;stroke-linecap:butt;stroke-linejoin:miter;stroke-opacity:1"
       d="m 41.267148,89.75491 24.778968,-0.0261"
       id="path3046-5-6-8"
       sodipodi:nodetypes="cc" />
    <path
       style="fill:none;stroke:#000000;stroke-width:0.288557px;stroke-linecap:butt;stroke-linejoin:miter;stroke-opacity:1"
       d="m 61.00324,65.3966 0.02613,29.47434"
       id="path3046-3-6-1-0"
       sodipodi:nodetypes="cc" />
    <path
       style="fill:none;stroke:#000000;stroke-width:0.288557px;stroke-linecap:butt;stroke-linejoin:miter;stroke-opacity:1"
       d="m 45.842129,65.3966 0.02613,29.47434"
       id="path3046-6-2-5-4"
       sodipodi:nodetypes="cc" />
    <path
       style="fill:none;stroke:#000000;stroke-width:0.288557px;stroke-linecap:butt;stroke-linejoin:miter;stroke-opacity:1"
       d="m 50.895832,65.3966 0.02613,29.47434"
       id="path3046-7-9-5-2"
       sodipodi:nodetypes="cc" />
    <path
       style="fill:none;stroke:#000000;stroke-width:0.288557px;stroke-linecap:butt;stroke-linejoin:miter;stroke-opacity:1"
       d="m 55.949536,65.3966 0.02613,29.47434"
       id="path3046-5-1-4-9"
       sodipodi:nodetypes="cc" />
    <rect
       style="fill:none;fill-opacity:1;stroke:#000000;stroke-width:1.224;stroke-dasharray:none;stroke-opacity:1"
       id="rect2918-36-8-6"
       width="5.0113964"
       height="29.358244"
       x="97.587143"
       y="65.360802" />
    <path
       style="fill:none;stroke:#000000;stroke-width:0.122112px;stroke-linecap:butt;stroke-linejoin:miter;stroke-opacity:1"
       d="m 97.671773,70.07724 5.276857,-0.0261"
       id="path3046-1-1-1"
       sodipodi:nodetypes="cc" />
    <path
       style="fill:none;stroke:#000000;stroke-width:0.122112px;stroke-linecap:butt;stroke-linejoin:miter;stroke-opacity:1"
       d="m 97.671773,74.99723 5.276857,-0.0261"
       id="path3046-3-06-0-0"
       sodipodi:nodetypes="cc" />
    <path
       style="fill:none;stroke:#000000;stroke-width:0.122112px;stroke-linecap:butt;stroke-linejoin:miter;stroke-opacity:1"
       d="m 97.671773,79.91722 5.276857,-0.0261"
       id="path3046-6-32-3-4"
       sodipodi:nodetypes="cc" />
    <path
       style="fill:none;stroke:#000000;stroke-width:0.122112px;stroke-linecap:butt;stroke-linejoin:miter;stroke-opacity:1"
       d="m 97.671773,84.8372 5.276857,-0.0261"
       id="path3046-7-0-0-2"
       sodipodi:nodetypes="cc" />
    <path
       style="fill:none;stroke:#000000;stroke-width:0.122112px;stroke-linecap:butt;stroke-linejoin:miter;stroke-opacity:1"
       d="m 97.671773,89.75719 5.276857,-0.0261"
       id="path3046-5-6-4-2"
       sodipodi:nodetypes="cc" />
    <rect
       style="fill:none;fill-opacity:1;stroke:#000000;stroke-width:0.5673;stroke-dasharray:none;stroke-opacity:1"
       id="rect2918-36-8-3-2"
       width="5.6680961"
       height="5.5759025"
       x="140.5663"
       y="65.032448" />
    <text
       xml:space="preserve"
       style="font-style:normal;font-weight:normal;font-size:10.5833px;line-height:1.25;font-family:sans-serif;fill:#000000;fill-opacity:1;stroke:none;stroke-width:0.264583"
       x="35.025242"
       y="58.006897"
       id="text9915"><tspan
         sodipodi:role="line"
         id="tspan9913"
         style="stroke-width:0.264583"
         x="35.025242"
         y="58.006897">&quot;image&quot;   &quot;array&quot;   &quot;scalar&quot;</tspan></text>
  </g>
</svg>
