<?xml version="1.0" encoding="UTF-8" standalone="no"?>
<!-- Created with Inkscape (http://www.inkscape.org/) -->

<svg
   width="247.72672mm"
   height="156.87154mm"
   viewBox="0 0 247.72672 156.87154"
   version="1.1"
   id="svg5"
   inkscape:version="1.2.2 (b0a8486541, 2022-12-01)"
   sodipodi:docname="scan.svg"
   xmlns:inkscape="http://www.inkscape.org/namespaces/inkscape"
   xmlns:sodipodi="http://sodipodi.sourceforge.net/DTD/sodipodi-0.dtd"
   xmlns:xlink="http://www.w3.org/1999/xlink"
   xmlns="http://www.w3.org/2000/svg"
   xmlns:svg="http://www.w3.org/2000/svg">
  <sodipodi:namedview
     id="namedview7"
     pagecolor="#505050"
     bordercolor="#eeeeee"
     borderopacity="1"
     inkscape:showpageshadow="0"
     inkscape:pageopacity="0"
     inkscape:pagecheckerboard="0"
     inkscape:deskcolor="#505050"
     inkscape:document-units="mm"
     showgrid="false"
     inkscape:zoom="0.64693624"
     inkscape:cx="612.88884"
     inkscape:cy="248.86533"
     inkscape:window-width="1716"
     inkscape:window-height="1606"
     inkscape:window-x="1164"
     inkscape:window-y="173"
     inkscape:window-maximized="0"
     inkscape:current-layer="layer1" />
  <defs
     id="defs2" />
  <g
     inkscape:label="Layer 1"
     inkscape:groupmode="layer"
     id="layer1"
     transform="translate(-7.574329,-1.2701059)">
    <g
       id="g5486"
       transform="translate(0,-2.0166601)">
      <g
         id="g4347">
        <g
           id="g3999">
          <rect
             style="fill:none;fill-opacity:1;stroke:#ca0000;stroke-width:1.224;stroke-dasharray:none;stroke-opacity:1"
             id="rect2918"
             width="24.81465"
             height="29.358244"
             x="14.143288"
             y="20.808432" />
          <path
             style="fill:none;stroke:#000000;stroke-width:0.264583px;stroke-linecap:butt;stroke-linejoin:miter;stroke-opacity:1"
             d="m 14.227075,25.527149 24.778968,-0.02613"
             id="path3046"
             sodipodi:nodetypes="cc" />
          <path
             style="fill:none;stroke:#000000;stroke-width:0.264583px;stroke-linecap:butt;stroke-linejoin:miter;stroke-opacity:1"
             d="m 14.227075,30.445996 24.778968,-0.02613"
             id="path3046-3"
             sodipodi:nodetypes="cc" />
          <path
             style="fill:none;stroke:#000000;stroke-width:0.264583px;stroke-linecap:butt;stroke-linejoin:miter;stroke-opacity:1"
             d="m 14.227075,35.364843 24.778968,-0.02613"
             id="path3046-6"
             sodipodi:nodetypes="cc" />
          <path
             style="fill:none;stroke:#000000;stroke-width:0.264583px;stroke-linecap:butt;stroke-linejoin:miter;stroke-opacity:1"
             d="M 14.227075,40.28369 39.006043,40.25756"
             id="path3046-7"
             sodipodi:nodetypes="cc" />
          <path
             style="fill:none;stroke:#000000;stroke-width:0.264583px;stroke-linecap:butt;stroke-linejoin:miter;stroke-opacity:1"
             d="m 14.227075,45.202537 24.778968,-0.02613"
             id="path3046-5"
             sodipodi:nodetypes="cc" />
          <path
             style="fill:none;stroke:#000000;stroke-width:0.288557px;stroke-linecap:butt;stroke-linejoin:miter;stroke-opacity:1"
             d="m 33.963167,20.844232 0.02613,29.474342"
             id="path3046-3-6"
             sodipodi:nodetypes="cc" />
          <path
             style="fill:none;stroke:#000000;stroke-width:0.288557px;stroke-linecap:butt;stroke-linejoin:miter;stroke-opacity:1"
             d="m 18.802056,20.844232 0.02613,29.474342"
             id="path3046-6-2"
             sodipodi:nodetypes="cc" />
          <path
             style="fill:none;stroke:#000000;stroke-width:0.288557px;stroke-linecap:butt;stroke-linejoin:miter;stroke-opacity:1"
             d="m 23.855759,20.844232 0.02613,29.474342"
             id="path3046-7-9"
             sodipodi:nodetypes="cc" />
          <path
             style="fill:none;stroke:#000000;stroke-width:0.288557px;stroke-linecap:butt;stroke-linejoin:miter;stroke-opacity:1"
             d="m 28.909463,20.844232 0.02613,29.474342"
             id="path3046-5-1"
             sodipodi:nodetypes="cc" />
        </g>
        <g
           id="g3999-2"
           transform="translate(4.9879585,5.1107078)">
          <rect
             style="fill:none;fill-opacity:1;stroke:#005c00;stroke-width:1.224;stroke-dasharray:none;stroke-opacity:1"
             id="rect2918-7"
             width="24.81465"
             height="29.358244"
             x="14.143288"
             y="20.808432" />
          <path
             style="fill:none;stroke:#000000;stroke-width:0.264583px;stroke-linecap:butt;stroke-linejoin:miter;stroke-opacity:1"
             d="m 14.227075,25.527149 24.778968,-0.02613"
             id="path3046-0"
             sodipodi:nodetypes="cc" />
          <path
             style="fill:none;stroke:#000000;stroke-width:0.264583px;stroke-linecap:butt;stroke-linejoin:miter;stroke-opacity:1"
             d="m 14.227075,30.445996 24.778968,-0.02613"
             id="path3046-3-9"
             sodipodi:nodetypes="cc" />
          <path
             style="fill:none;stroke:#000000;stroke-width:0.264583px;stroke-linecap:butt;stroke-linejoin:miter;stroke-opacity:1"
             d="m 14.227075,35.364843 24.778968,-0.02613"
             id="path3046-6-3"
             sodipodi:nodetypes="cc" />
          <path
             style="fill:none;stroke:#000000;stroke-width:0.264583px;stroke-linecap:butt;stroke-linejoin:miter;stroke-opacity:1"
             d="M 14.227075,40.28369 39.006043,40.25756"
             id="path3046-7-6"
             sodipodi:nodetypes="cc" />
          <path
             style="fill:none;stroke:#000000;stroke-width:0.264583px;stroke-linecap:butt;stroke-linejoin:miter;stroke-opacity:1"
             d="m 14.227075,45.202537 24.778968,-0.02613"
             id="path3046-5-0"
             sodipodi:nodetypes="cc" />
          <path
             style="fill:none;stroke:#000000;stroke-width:0.288557px;stroke-linecap:butt;stroke-linejoin:miter;stroke-opacity:1"
             d="m 33.963167,20.844232 0.02613,29.474342"
             id="path3046-3-6-6"
             sodipodi:nodetypes="cc" />
          <path
             style="fill:none;stroke:#000000;stroke-width:0.288557px;stroke-linecap:butt;stroke-linejoin:miter;stroke-opacity:1"
             d="m 18.802056,20.844232 0.02613,29.474342"
             id="path3046-6-2-2"
             sodipodi:nodetypes="cc" />
          <path
             style="fill:none;stroke:#000000;stroke-width:0.288557px;stroke-linecap:butt;stroke-linejoin:miter;stroke-opacity:1"
             d="m 23.855759,20.844232 0.02613,29.474342"
             id="path3046-7-9-6"
             sodipodi:nodetypes="cc" />
          <path
             style="fill:none;stroke:#000000;stroke-width:0.288557px;stroke-linecap:butt;stroke-linejoin:miter;stroke-opacity:1"
             d="m 28.909463,20.844232 0.02613,29.474342"
             id="path3046-5-1-1"
             sodipodi:nodetypes="cc" />
        </g>
        <g
           id="g3999-8"
           transform="translate(10.115312,9.7064749)">
          <rect
             style="fill:none;fill-opacity:1;stroke:#0000ab;stroke-width:1.224;stroke-dasharray:none;stroke-opacity:1"
             id="rect2918-79"
             width="24.81465"
             height="29.358244"
             x="14.143288"
             y="20.808432" />
          <path
             style="fill:none;stroke:#000000;stroke-width:0.264583px;stroke-linecap:butt;stroke-linejoin:miter;stroke-opacity:1"
             d="m 14.227075,25.527149 24.778968,-0.02613"
             id="path3046-2"
             sodipodi:nodetypes="cc" />
          <path
             style="fill:none;stroke:#000000;stroke-width:0.264583px;stroke-linecap:butt;stroke-linejoin:miter;stroke-opacity:1"
             d="m 14.227075,30.445996 24.778968,-0.02613"
             id="path3046-3-0"
             sodipodi:nodetypes="cc" />
          <path
             style="fill:none;stroke:#000000;stroke-width:0.264583px;stroke-linecap:butt;stroke-linejoin:miter;stroke-opacity:1"
             d="m 14.227075,35.364843 24.778968,-0.02613"
             id="path3046-6-23"
             sodipodi:nodetypes="cc" />
          <path
             style="fill:none;stroke:#000000;stroke-width:0.264583px;stroke-linecap:butt;stroke-linejoin:miter;stroke-opacity:1"
             d="M 14.227075,40.28369 39.006043,40.25756"
             id="path3046-7-7"
             sodipodi:nodetypes="cc" />
          <path
             style="fill:none;stroke:#000000;stroke-width:0.264583px;stroke-linecap:butt;stroke-linejoin:miter;stroke-opacity:1"
             d="m 14.227075,45.202537 24.778968,-0.02613"
             id="path3046-5-5"
             sodipodi:nodetypes="cc" />
          <path
             style="fill:none;stroke:#000000;stroke-width:0.288557px;stroke-linecap:butt;stroke-linejoin:miter;stroke-opacity:1"
             d="m 33.963167,20.844232 0.02613,29.474342"
             id="path3046-3-6-9"
             sodipodi:nodetypes="cc" />
          <path
             style="fill:none;stroke:#000000;stroke-width:0.288557px;stroke-linecap:butt;stroke-linejoin:miter;stroke-opacity:1"
             d="m 18.802056,20.844232 0.02613,29.474342"
             id="path3046-6-2-22"
             sodipodi:nodetypes="cc" />
          <path
             style="fill:none;stroke:#000000;stroke-width:0.288557px;stroke-linecap:butt;stroke-linejoin:miter;stroke-opacity:1"
             d="m 23.855759,20.844232 0.02613,29.474342"
             id="path3046-7-9-8"
             sodipodi:nodetypes="cc" />
          <path
             style="fill:none;stroke:#000000;stroke-width:0.288557px;stroke-linecap:butt;stroke-linejoin:miter;stroke-opacity:1"
             d="m 28.909463,20.844232 0.02613,29.474342"
             id="path3046-5-1-9"
             sodipodi:nodetypes="cc" />
        </g>
        <g
           id="g3999-7"
           transform="translate(15.194497,14.505975)">
          <rect
             style="fill:none;fill-opacity:1;stroke:#000000;stroke-width:1.224;stroke-dasharray:none;stroke-opacity:1"
             id="rect2918-3"
             width="24.81465"
             height="29.358244"
             x="14.143288"
             y="20.808432" />
          <path
             style="fill:none;stroke:#000000;stroke-width:0.264583px;stroke-linecap:butt;stroke-linejoin:miter;stroke-opacity:1"
             d="m 14.227075,25.527149 24.778968,-0.02613"
             id="path3046-61"
             sodipodi:nodetypes="cc" />
          <path
             style="fill:none;stroke:#000000;stroke-width:0.264583px;stroke-linecap:butt;stroke-linejoin:miter;stroke-opacity:1"
             d="m 14.227075,30.445996 24.778968,-0.02613"
             id="path3046-3-2"
             sodipodi:nodetypes="cc" />
          <path
             style="fill:none;stroke:#000000;stroke-width:0.264583px;stroke-linecap:butt;stroke-linejoin:miter;stroke-opacity:1"
             d="m 14.227075,35.364843 24.778968,-0.02613"
             id="path3046-6-9"
             sodipodi:nodetypes="cc" />
          <path
             style="fill:none;stroke:#000000;stroke-width:0.264583px;stroke-linecap:butt;stroke-linejoin:miter;stroke-opacity:1"
             d="M 14.227075,40.28369 39.006043,40.25756"
             id="path3046-7-3"
             sodipodi:nodetypes="cc" />
          <path
             style="fill:none;stroke:#000000;stroke-width:0.264583px;stroke-linecap:butt;stroke-linejoin:miter;stroke-opacity:1"
             d="m 14.227075,45.202537 24.778968,-0.02613"
             id="path3046-5-19"
             sodipodi:nodetypes="cc" />
          <path
             style="fill:none;stroke:#000000;stroke-width:0.288557px;stroke-linecap:butt;stroke-linejoin:miter;stroke-opacity:1"
             d="m 33.963167,20.844232 0.02613,29.474342"
             id="path3046-3-6-4"
             sodipodi:nodetypes="cc" />
          <path
             style="fill:none;stroke:#000000;stroke-width:0.288557px;stroke-linecap:butt;stroke-linejoin:miter;stroke-opacity:1"
             d="m 18.802056,20.844232 0.02613,29.474342"
             id="path3046-6-2-7"
             sodipodi:nodetypes="cc" />
          <path
             style="fill:none;stroke:#000000;stroke-width:0.288557px;stroke-linecap:butt;stroke-linejoin:miter;stroke-opacity:1"
             d="m 23.855759,20.844232 0.02613,29.474342"
             id="path3046-7-9-84"
             sodipodi:nodetypes="cc" />
          <path
             style="fill:none;stroke:#000000;stroke-width:0.288557px;stroke-linecap:butt;stroke-linejoin:miter;stroke-opacity:1"
             d="m 28.909463,20.844232 0.02613,29.474342"
             id="path3046-5-1-5"
             sodipodi:nodetypes="cc" />
        </g>
      </g>
      <g
         id="g3999-0"
         transform="translate(99.840132,99.707331)">
        <rect
           style="fill:none;fill-opacity:1;stroke:#000000;stroke-width:1.224;stroke-dasharray:none;stroke-opacity:1"
           id="rect2918-36"
           width="24.81465"
           height="29.358244"
           x="14.143288"
           y="20.808432" />
        <path
           style="fill:none;stroke:#000000;stroke-width:0.264583px;stroke-linecap:butt;stroke-linejoin:miter;stroke-opacity:1"
           d="m 14.227075,25.527149 24.778968,-0.02613"
           id="path3046-1"
           sodipodi:nodetypes="cc" />
        <path
           style="fill:none;stroke:#000000;stroke-width:0.264583px;stroke-linecap:butt;stroke-linejoin:miter;stroke-opacity:1"
           d="m 14.227075,30.445996 24.778968,-0.02613"
           id="path3046-3-06"
           sodipodi:nodetypes="cc" />
        <path
           style="fill:none;stroke:#000000;stroke-width:0.264583px;stroke-linecap:butt;stroke-linejoin:miter;stroke-opacity:1"
           d="m 14.227075,35.364843 24.778968,-0.02613"
           id="path3046-6-32"
           sodipodi:nodetypes="cc" />
        <path
           style="fill:none;stroke:#000000;stroke-width:0.264583px;stroke-linecap:butt;stroke-linejoin:miter;stroke-opacity:1"
           d="M 14.227075,40.28369 39.006043,40.25756"
           id="path3046-7-0"
           sodipodi:nodetypes="cc" />
        <path
           style="fill:none;stroke:#000000;stroke-width:0.264583px;stroke-linecap:butt;stroke-linejoin:miter;stroke-opacity:1"
           d="m 14.227075,45.202537 24.778968,-0.02613"
           id="path3046-5-6"
           sodipodi:nodetypes="cc" />
        <path
           style="fill:none;stroke:#000000;stroke-width:0.288557px;stroke-linecap:butt;stroke-linejoin:miter;stroke-opacity:1"
           d="m 33.963167,20.844232 0.02613,29.474342"
           id="path3046-3-6-1"
           sodipodi:nodetypes="cc" />
        <path
           style="fill:none;stroke:#000000;stroke-width:0.288557px;stroke-linecap:butt;stroke-linejoin:miter;stroke-opacity:1"
           d="m 18.802056,20.844232 0.02613,29.474342"
           id="path3046-6-2-5"
           sodipodi:nodetypes="cc" />
        <path
           style="fill:none;stroke:#000000;stroke-width:0.288557px;stroke-linecap:butt;stroke-linejoin:miter;stroke-opacity:1"
           d="m 23.855759,20.844232 0.02613,29.474342"
           id="path3046-7-9-5"
           sodipodi:nodetypes="cc" />
        <path
           style="fill:none;stroke:#000000;stroke-width:0.288557px;stroke-linecap:butt;stroke-linejoin:miter;stroke-opacity:1"
           d="m 28.909463,20.844232 0.02613,29.474342"
           id="path3046-5-1-4"
           sodipodi:nodetypes="cc" />
      </g>
      <text
         xml:space="preserve"
         style="font-style:normal;font-weight:normal;font-size:10.5833px;line-height:1.25;font-family:sans-serif;fill:#000000;fill-opacity:1;stroke:none;stroke-width:0.264583"
         x="146.33623"
         y="13.543291"
         id="text4301"
         transform="rotate(42.058752)"><tspan
           sodipodi:role="line"
           id="tspan4299"
           style="stroke-width:0.264583"
           x="146.33623"
           y="13.543291">. . . </tspan></text>
      <use
         x="0"
         y="0"
         xlink:href="#g4347"
         id="use4640"
         transform="translate(19.947898,19.7041)" />
      <use
         x="0"
         y="0"
         xlink:href="#use4640"
         id="use4642"
         transform="translate(20.185363,19.529877)" />
    </g>
    <g
       id="g5486-6"
       transform="translate(82.862118,-2.0166601)">
      <g
         id="g4347-1">
        <g
           id="g3999-06">
          <path
             style="fill:none;stroke:#000000;stroke-width:0.110181px;stroke-linecap:butt;stroke-linejoin:miter;stroke-opacity:1"
             d="m 14.228004,25.524681 4.295972,-0.02614"
             id="path3046-59"
             sodipodi:nodetypes="cc" />
          <path
             style="fill:none;stroke:#000000;stroke-width:0.110181px;stroke-linecap:butt;stroke-linejoin:miter;stroke-opacity:1"
             d="m 14.228004,30.444764 4.295972,-0.02614"
             id="path3046-3-4"
             sodipodi:nodetypes="cc" />
          <path
             style="fill:none;stroke:#000000;stroke-width:0.110181px;stroke-linecap:butt;stroke-linejoin:miter;stroke-opacity:1"
             d="m 14.228004,35.364846 4.295972,-0.02614"
             id="path3046-6-90"
             sodipodi:nodetypes="cc" />
          <path
             style="fill:none;stroke:#000000;stroke-width:0.110181px;stroke-linecap:butt;stroke-linejoin:miter;stroke-opacity:1"
             d="m 14.228004,40.284929 4.295972,-0.02614"
             id="path3046-7-91"
             sodipodi:nodetypes="cc" />
          <path
             style="fill:none;stroke:#000000;stroke-width:0.110181px;stroke-linecap:butt;stroke-linejoin:miter;stroke-opacity:1"
             d="m 14.228004,45.205012 4.295972,-0.02614"
             id="path3046-5-7"
             sodipodi:nodetypes="cc" />
          <rect
             style="fill:none;fill-opacity:1;stroke:#ca0000;stroke-width:1.224;stroke-dasharray:none;stroke-opacity:1"
             id="rect2918-1"
             width="4.6574335"
             height="29.358244"
             x="14.143288"
             y="20.808432" />
        </g>
        <g
           id="g3999-2-7"
           transform="translate(4.9879585,5.1107078)">
          <path
             style="fill:none;stroke:#000000;stroke-width:0.121799px;stroke-linecap:butt;stroke-linejoin:miter;stroke-opacity:1"
             d="m 14.228032,25.524866 5.249867,-0.02614"
             id="path3046-0-6"
             sodipodi:nodetypes="cc" />
          <path
             style="fill:none;stroke:#000000;stroke-width:0.121799px;stroke-linecap:butt;stroke-linejoin:miter;stroke-opacity:1"
             d="m 14.228032,30.444856 5.249867,-0.02614"
             id="path3046-3-9-7"
             sodipodi:nodetypes="cc" />
          <path
             style="fill:none;stroke:#000000;stroke-width:0.121799px;stroke-linecap:butt;stroke-linejoin:miter;stroke-opacity:1"
             d="m 14.228032,35.364846 5.249867,-0.02614"
             id="path3046-6-3-3"
             sodipodi:nodetypes="cc" />
          <path
             style="fill:none;stroke:#000000;stroke-width:0.121799px;stroke-linecap:butt;stroke-linejoin:miter;stroke-opacity:1"
             d="M 14.228032,40.284836 19.477899,40.2587"
             id="path3046-7-6-6"
             sodipodi:nodetypes="cc" />
          <path
             style="fill:none;stroke:#000000;stroke-width:0.121799px;stroke-linecap:butt;stroke-linejoin:miter;stroke-opacity:1"
             d="m 14.228032,45.204826 5.249867,-0.02614"
             id="path3046-5-0-5"
             sodipodi:nodetypes="cc" />
          <rect
             style="fill:none;fill-opacity:1;stroke:#005c00;stroke-width:1.224;stroke-dasharray:none;stroke-opacity:1"
             id="rect2918-7-7"
             width="4.9073291"
             height="29.358244"
             x="14.143288"
             y="20.808432" />
        </g>
        <g
           id="g3999-8-8"
           transform="translate(10.115312,9.7064749)">
          <path
             style="fill:none;stroke:#000000;stroke-width:0.116017px;stroke-linecap:butt;stroke-linejoin:miter;stroke-opacity:1"
             d="m 14.22802,25.524774 4.76318,-0.02614"
             id="path3046-2-2"
             sodipodi:nodetypes="cc" />
          <path
             style="fill:none;stroke:#000000;stroke-width:0.116017px;stroke-linecap:butt;stroke-linejoin:miter;stroke-opacity:1"
             d="M 14.22802,30.44481 18.9912,30.41867"
             id="path3046-3-0-9"
             sodipodi:nodetypes="cc" />
          <path
             style="fill:none;stroke:#000000;stroke-width:0.116017px;stroke-linecap:butt;stroke-linejoin:miter;stroke-opacity:1"
             d="M 14.22802,35.364846 18.9912,35.33871"
             id="path3046-6-23-3"
             sodipodi:nodetypes="cc" />
          <path
             style="fill:none;stroke:#000000;stroke-width:0.116017px;stroke-linecap:butt;stroke-linejoin:miter;stroke-opacity:1"
             d="m 14.22802,40.284882 4.76318,-0.02614"
             id="path3046-7-7-9"
             sodipodi:nodetypes="cc" />
          <path
             style="fill:none;stroke:#000000;stroke-width:0.116017px;stroke-linecap:butt;stroke-linejoin:miter;stroke-opacity:1"
             d="m 14.22802,45.204918 4.76318,-0.02614"
             id="path3046-5-5-0"
             sodipodi:nodetypes="cc" />
          <rect
             style="fill:none;fill-opacity:1;stroke:#0000ab;stroke-width:1.224;stroke-dasharray:none;stroke-opacity:1"
             id="rect2918-79-1"
             width="4.8476825"
             height="29.693848"
             x="14.143288"
             y="20.808432" />
        </g>
        <g
           id="g3999-7-9"
           transform="translate(15.194497,14.505975)">
          <rect
             style="fill:none;fill-opacity:1;stroke:#000000;stroke-width:1.224;stroke-dasharray:none;stroke-opacity:1"
             id="rect2918-3-6"
             width="5.0204077"
             height="29.419744"
             x="14.143288"
             y="20.808432" />
          <path
             style="fill:none;stroke:#000000;stroke-width:0.117129px;stroke-linecap:butt;stroke-linejoin:miter;stroke-opacity:1"
             d="m 14.228023,25.524792 4.854972,-0.02614"
             id="path3046-61-3"
             sodipodi:nodetypes="cc" />
          <path
             style="fill:none;stroke:#000000;stroke-width:0.117129px;stroke-linecap:butt;stroke-linejoin:miter;stroke-opacity:1"
             d="m 14.228023,30.444819 4.854972,-0.02614"
             id="path3046-3-2-8"
             sodipodi:nodetypes="cc" />
          <path
             style="fill:none;stroke:#000000;stroke-width:0.117129px;stroke-linecap:butt;stroke-linejoin:miter;stroke-opacity:1"
             d="m 14.228023,35.364846 4.854972,-0.02614"
             id="path3046-6-9-5"
             sodipodi:nodetypes="cc" />
          <path
             style="fill:none;stroke:#000000;stroke-width:0.117129px;stroke-linecap:butt;stroke-linejoin:miter;stroke-opacity:1"
             d="m 14.228023,40.284873 4.854972,-0.02614"
             id="path3046-7-3-6"
             sodipodi:nodetypes="cc" />
          <path
             style="fill:none;stroke:#000000;stroke-width:0.117129px;stroke-linecap:butt;stroke-linejoin:miter;stroke-opacity:1"
             d="m 14.228023,45.2049 4.854972,-0.02614"
             id="path3046-5-19-1"
             sodipodi:nodetypes="cc" />
        </g>
      </g>
      <g
         id="g3999-0-4"
         transform="translate(99.840132,99.707331)">
        <rect
           style="fill:none;fill-opacity:1;stroke:#000000;stroke-width:1.224;stroke-dasharray:none;stroke-opacity:1"
           id="rect2918-36-8"
           width="5.0113964"
           height="29.358244"
           x="14.143288"
           y="20.808432" />
        <path
           style="fill:none;stroke:#000000;stroke-width:0.122112px;stroke-linecap:butt;stroke-linejoin:miter;stroke-opacity:1"
           d="m 14.228033,25.524871 5.276874,-0.02614"
           id="path3046-1-1"
           sodipodi:nodetypes="cc" />
        <path
           style="fill:none;stroke:#000000;stroke-width:0.122112px;stroke-linecap:butt;stroke-linejoin:miter;stroke-opacity:1"
           d="m 14.228033,30.444859 5.276874,-0.02614"
           id="path3046-3-06-0"
           sodipodi:nodetypes="cc" />
        <path
           style="fill:none;stroke:#000000;stroke-width:0.122112px;stroke-linecap:butt;stroke-linejoin:miter;stroke-opacity:1"
           d="m 14.228033,35.364846 5.276874,-0.02614"
           id="path3046-6-32-3"
           sodipodi:nodetypes="cc" />
        <path
           style="fill:none;stroke:#000000;stroke-width:0.122112px;stroke-linecap:butt;stroke-linejoin:miter;stroke-opacity:1"
           d="m 14.228033,40.284833 5.276874,-0.02614"
           id="path3046-7-0-0"
           sodipodi:nodetypes="cc" />
        <path
           style="fill:none;stroke:#000000;stroke-width:0.122112px;stroke-linecap:butt;stroke-linejoin:miter;stroke-opacity:1"
           d="m 14.228033,45.204821 5.276874,-0.02614"
           id="path3046-5-6-4"
           sodipodi:nodetypes="cc" />
      </g>
      <text
         xml:space="preserve"
         style="font-style:normal;font-weight:normal;font-size:10.5833px;line-height:1.25;font-family:sans-serif;fill:#000000;fill-opacity:1;stroke:none;stroke-width:0.264583"
         x="146.33623"
         y="13.543291"
         id="text4301-6"
         transform="rotate(42.058752)"><tspan
           sodipodi:role="line"
           id="tspan4299-3"
           style="stroke-width:0.264583"
           x="146.33623"
           y="13.543291">. . . </tspan></text>
      <use
         x="0"
         y="0"
         xlink:href="#g4347-1"
         id="use4640-1"
         transform="translate(19.947898,19.7041)" />
      <use
         x="0"
         y="0"
         xlink:href="#use4640-1"
         id="use4642-7"
         transform="translate(20.185363,19.529877)" />
    </g>
    <g
       id="g5486-6-8"
       transform="translate(135.69423,-2.01666)">
      <g
         id="g4347-1-1">
        <g
           id="g3999-06-2">
          <rect
             style="fill:none;fill-opacity:1;stroke:#ca0000;stroke-width:0.591489;stroke-dasharray:none;stroke-opacity:1"
             id="rect2918-1-8"
             width="5.2899446"
             height="6.0360909"
             x="13.827032"
             y="20.492176" />
        </g>
        <g
           id="g3999-2-7-1"
           transform="translate(4.9879585,5.1107078)">
          <rect
             style="fill:none;fill-opacity:1;stroke:#005c00;stroke-width:0.571992;stroke-dasharray:none;stroke-opacity:1"
             id="rect2918-7-7-1"
             width="5.5593371"
             height="5.6593833"
             x="13.817284"
             y="20.482428" />
        </g>
        <g
           id="g3999-8-8-8"
           transform="translate(10.115312,9.7064749)">
          <rect
             style="fill:none;fill-opacity:1;stroke:#0000ab;stroke-width:0.583829;stroke-dasharray:none;stroke-opacity:1"
             id="rect2918-79-1-6"
             width="5.4878531"
             height="5.9677043"
             x="13.823202"
             y="20.488346" />
        </g>
        <g
           id="g3999-7-9-9"
           transform="translate(15.194497,14.505975)">
          <rect
             style="fill:none;fill-opacity:1;stroke:#000000;stroke-width:0.577488;stroke-dasharray:none;stroke-opacity:1"
             id="rect2918-3-6-9"
             width="5.6669197"
             height="5.8016815"
             x="13.820032"
             y="20.485176" />
        </g>
      </g>
      <g
         id="g3999-0-4-0"
         transform="translate(99.840132,99.707331)">
        <rect
           style="fill:none;fill-opacity:1;stroke:#000000;stroke-width:0.5673;stroke-dasharray:none;stroke-opacity:1"
           id="rect2918-36-8-3"
           width="5.6680961"
           height="5.5759025"
           x="13.814938"
           y="20.480082" />
      </g>
      <text
         xml:space="preserve"
         style="font-style:normal;font-weight:normal;font-size:10.5833px;line-height:1.25;font-family:sans-serif;fill:#000000;fill-opacity:1;stroke:none;stroke-width:0.264583"
         x="146.33623"
         y="13.543291"
         id="text4301-6-5"
         transform="rotate(42.058752)"><tspan
           sodipodi:role="line"
           id="tspan4299-3-6"
           style="stroke-width:0.264583"
           x="146.33623"
           y="13.543291">. . . </tspan></text>
      <use
         x="0"
         y="0"
         xlink:href="#g4347-1-1"
         id="use4640-1-6"
         transform="translate(19.947898,19.7041)" />
      <use
         x="0"
         y="0"
         xlink:href="#use4640-1-6"
         id="use4642-7-4"
         transform="translate(20.185363,19.529877)" />
    </g>
    <text
       xml:space="preserve"
       style="font-style:normal;font-weight:normal;font-size:10.5833px;line-height:1.25;font-family:sans-serif;fill:#000000;fill-opacity:1;stroke:none;stroke-width:0.264583"
       x="6.8864145"
       y="9.3134136"
       id="text5374"><tspan
         sodipodi:role="line"
         id="tspan5372"
         style="stroke-width:0.264583"
         x="6.8864145"
         y="9.3134136">&quot;image&quot;</tspan></text>
    <text
       xml:space="preserve"
       style="font-style:normal;font-weight:normal;font-size:10.5833px;line-height:1.25;font-family:sans-serif;fill:#000000;fill-opacity:1;stroke:none;stroke-width:0.264583"
       x="84.064857"
       y="9.3134136"
       id="text5374-0"><tspan
         sodipodi:role="line"
         id="tspan5372-0"
         style="stroke-width:0.264583"
         x="84.064857"
         y="9.3134136">&quot;array&quot;</tspan></text>
    <text
       xml:space="preserve"
       style="font-style:normal;font-weight:normal;font-size:8.30731px;line-height:1.25;font-family:sans-serif;fill:#b70000;fill-opacity:1;stroke:none;stroke-width:0.207683"
       x="8.5821028"
       y="57.802963"
       id="text6882"><tspan
         sodipodi:role="line"
         id="tspan6880"
         style="fill:#b70000;fill-opacity:1;stroke-width:0.207683"
         x="8.5821028"
         y="57.802963">0</tspan></text>
    <text
       xml:space="preserve"
       style="font-style:normal;font-weight:normal;font-size:8.30731px;line-height:1.25;font-family:sans-serif;fill:#005e00;fill-opacity:1;stroke:none;stroke-width:0.207683"
       x="13.78446"
       y="62.748177"
       id="text6882-4"><tspan
         sodipodi:role="line"
         id="tspan6880-6"
         style="fill:#005e00;fill-opacity:1;stroke-width:0.207683"
         x="13.78446"
         y="62.748177">1</tspan></text>
    <text
       xml:space="preserve"
       style="font-style:normal;font-weight:normal;font-size:8.30731px;line-height:1.25;font-family:sans-serif;fill:#005e00;fill-opacity:1;stroke:none;stroke-width:0.207683"
       x="34.593887"
       y="82.52903"
       id="text6882-5"><tspan
         sodipodi:role="line"
         id="tspan6880-69"
         style="fill:#005e00;fill-opacity:1;stroke-width:0.207683"
         x="34.593887"
         y="82.52903">5</tspan></text>
    <text
       xml:space="preserve"
       style="font-style:normal;font-weight:normal;font-size:8.30731px;line-height:1.25;font-family:sans-serif;fill:#000000;fill-opacity:1;stroke:none;stroke-width:0.207683"
       x="44.9986"
       y="92.419464"
       id="text6882-8"><tspan
         sodipodi:role="line"
         id="tspan6880-7"
         style="stroke-width:0.207683"
         x="44.9986"
         y="92.419464">7</tspan></text>
    <text
       xml:space="preserve"
       style="font-style:normal;font-weight:normal;font-size:8.30731px;line-height:1.25;font-family:sans-serif;fill:#b70000;fill-opacity:1;stroke:none;stroke-width:0.207683"
       x="50.200958"
       y="97.364677"
       id="text6882-28"><tspan
         sodipodi:role="line"
         id="tspan6880-2"
         style="fill:#b70000;fill-opacity:1;stroke-width:0.207683"
         x="50.200958"
         y="97.364677">8</tspan></text>
    <text
       xml:space="preserve"
       style="font-style:normal;font-weight:normal;font-size:8.30731px;line-height:1.25;font-family:sans-serif;fill:#000000;fill-opacity:1;stroke:none;stroke-width:0.207683"
       x="66.679283"
       y="114.01157"
       id="text6882-9"><tspan
         sodipodi:role="line"
         id="tspan6880-9"
         style="stroke-width:0.207683"
         x="66.679283"
         y="114.01157">11</tspan></text>
    <text
       xml:space="preserve"
       style="font-style:normal;font-weight:normal;font-size:8.30731px;line-height:1.25;font-family:sans-serif;fill:#000000;fill-opacity:1;stroke:none;stroke-width:0.207683"
       x="107.73631"
       y="158.14165"
       id="text6882-9-0"><tspan
         sodipodi:role="line"
         id="tspan6880-9-7"
         style="stroke-width:0.207683"
         x="107.73631"
         y="158.14165">N</tspan></text>
    <text
       xml:space="preserve"
       style="font-style:normal;font-weight:normal;font-size:8.30731px;line-height:1.25;font-family:sans-serif;fill:#0000a3;fill-opacity:1;stroke:none;stroke-width:0.207683"
       x="58.405563"
       y="108.10262"
       id="text6882-6"><tspan
         sodipodi:role="line"
         id="tspan6880-0"
         style="fill:#0000a3;fill-opacity:1;stroke-width:0.207683"
         x="58.405563"
         y="108.10262">10</tspan></text>
    <text
       xml:space="preserve"
       style="font-style:normal;font-weight:normal;font-size:8.30731px;line-height:1.25;font-family:sans-serif;fill:#b70000;fill-opacity:1;stroke:none;stroke-width:0.207683"
       x="29.391531"
       y="77.583817"
       id="text6882-27"><tspan
         sodipodi:role="line"
         id="tspan6880-61"
         style="fill:#b70000;fill-opacity:1;stroke-width:0.207683"
         x="29.391531"
         y="77.583817">4</tspan></text>
    <text
       xml:space="preserve"
       style="font-style:normal;font-weight:normal;font-size:8.30731px;line-height:1.25;font-family:sans-serif;fill:#000000;fill-opacity:1;stroke:none;stroke-width:0.207683"
       x="24.189173"
       y="72.638603"
       id="text6882-3"><tspan
         sodipodi:role="line"
         id="tspan6880-21"
         style="stroke-width:0.207683"
         x="24.189173"
         y="72.638603">3</tspan></text>
    <text
       xml:space="preserve"
       style="font-style:normal;font-weight:normal;font-size:8.30731px;line-height:1.25;font-family:sans-serif;fill:#0000a3;fill-opacity:1;stroke:none;stroke-width:0.207683"
       x="39.796246"
       y="87.474251"
       id="text6882-59"><tspan
         sodipodi:role="line"
         id="tspan6880-91"
         style="fill:#0000a3;fill-opacity:1;stroke-width:0.207683"
         x="39.796246"
         y="87.474251">6</tspan></text>
    <text
       xml:space="preserve"
       style="font-style:normal;font-weight:normal;font-size:8.30731px;line-height:1.25;font-family:sans-serif;fill:#005e00;fill-opacity:1;stroke:none;stroke-width:0.207683"
       x="55.403316"
       y="102.30989"
       id="text6882-49"><tspan
         sodipodi:role="line"
         id="tspan6880-1"
         style="fill:#005e00;fill-opacity:1;stroke-width:0.207683"
         x="55.403316"
         y="102.30989">9</tspan></text>
    <text
       xml:space="preserve"
       style="font-style:normal;font-weight:normal;font-size:8.30731px;line-height:1.25;font-family:sans-serif;fill:#0000a3;fill-opacity:1;stroke:none;stroke-width:0.207683"
       x="18.986816"
       y="67.69339"
       id="text6882-2"><tspan
         sodipodi:role="line"
         id="tspan6880-67"
         style="fill:#0000a3;fill-opacity:1;stroke-width:0.207683"
         x="18.986816"
         y="67.69339">2</tspan></text>
    <text
       xml:space="preserve"
       style="font-style:normal;font-weight:normal;font-size:10.5833px;line-height:1.25;font-family:sans-serif;fill:#000000;fill-opacity:1;stroke:none;stroke-width:0.264583"
       x="143.86113"
       y="9.3134136"
       id="text9306"><tspan
         sodipodi:role="line"
         id="tspan9304"
         style="stroke-width:0.264583"
         x="143.86113"
         y="9.3134136">&quot;scalar&quot;</tspan></text>
  </g>
</svg>
